{
  "content": [{
    "id": null,
    "channelName": "车高规格",
    "borrowingFactNum": 0,
    "certNum": 0,
    "channelUrl": "http://suo.im/50HJZx",
    "CPSNum": 0,
    "borrowingNum": 0,
    "viewNum": 0,
    "certFactNum": 0,
    "registerNum": 0,
    "CPSFactNum": 0
  }, {
    "id": null,
    "channelName": "4035代理1",
    "borrowingFactNum": 0,
    "certNum": 0,
    "channelUrl": "http://suo.im/tFL9e",
    "CPSNum": 0,
    "borrowingNum": 0,
    "viewNum": 0,
    "certFactNum": 0,
    "registerNum": 0,
    "CPSFactNum": 0
  }, {
    "id": null,
    "channelName": "4035代理2",
    "borrowingFactNum": 0,
    "certNum": 0,
    "channelUrl": "http://suo.im/4wYrq2",
    "CPSNum": 0,
    "borrowingNum": 0,
    "viewNum": 0,
    "certFactNum": 0,
    "registerNum": 0,
    "CPSFactNum": 0
  }, {
    "id": null,
    "channelName": "4035代理3",
    "borrowingFactNum": 0,
    "certNum": 0,
    "channelUrl": "http://suo.im/2lPtg0",
    "CPSNum": 0,
    "borrowingNum": 0,
    "viewNum": 0,
    "certFactNum": 0,
    "registerNum": 0,
    "CPSFactNum": 0
  }, {
    "id": null,
    "channelName": "4035代理4",
    "borrowingFactNum": 0,
    "certNum": 0,
    "channelUrl": "http://suo.im/y9z0b",
    "CPSNum": 0,
    "borrowingNum": 0,
    "viewNum": 0,
    "certFactNum": 0,
    "registerNum": 0,
    "CPSFactNum": 0
  }, {
    "id": null,
    "channelName": "4035代理5",
    "borrowingFactNum": 0,
    "certNum": 0,
    "channelUrl": "http://suo.im/1ViTOx",
    "CPSNum": 0,
    "borrowingNum": 0,
    "viewNum": 0,
    "certFactNum": 0,
    "registerNum": 0,
    "CPSFactNum": 0
  }, {
    "id": null,
    "channelName": "51信用",
    "borrowingFactNum": 0,
    "certNum": 0,
    "channelUrl": "http://suo.im/4vH5N0",
    "CPSNum": 0,
    "borrowingNum": 0,
    "viewNum": 0,
    "certFactNum": 0,
    "registerNum": 0,
    "CPSFactNum": 0
  }, {
    "id": null,
    "channelName": "安稳钱包",
    "borrowingFactNum": 0,
    "certNum": 1,
    "channelUrl": "http://suo.im/4DDAeZ",
    "CPSNum": 0,
    "borrowingNum": 0,
    "viewNum": 18,
    "certFactNum": 1,
    "registerNum": 6,
    "CPSFactNum": 0
  }, {
    "id": null,
    "channelName": "安稳钱包2",
    "borrowingFactNum": 13,
    "certNum": 50,
    "channelUrl": "http://suo.im/4ph7Ub",
    "CPSNum": 4,
    "borrowingNum": 13,
    "viewNum": 206,
    "certFactNum": 50,
    "registerNum": 86,
    "CPSFactNum": 4
  }, {
    "id": null,
    "channelName": "安稳钱包3",
    "borrowingFactNum": 0,
    "certNum": 0,
    "channelUrl": "http://suo.im/5fDkul",
    "CPSNum": 0,
    "borrowingNum": 0,
    "viewNum": 0,
    "certFactNum": 0,
    "registerNum": 0,
    "CPSFactNum": 0
  }, {
    "id": null,
    "channelName": "安稳钱包4",
    "borrowingFactNum": 0,
    "certNum": 0,
    "channelUrl": "http://suo.im/5o3yCy",
    "CPSNum": 0,
    "borrowingNum": 0,
    "viewNum": 0,
    "certFactNum": 0,
    "registerNum": 0,
    "CPSFactNum": 0
  }, {
    "id": null,
    "channelName": "安稳钱包5",
    "borrowingFactNum": 0,
    "certNum": 0,
    "channelUrl": "http://suo.im/4TivgP",
    "CPSNum": 0,
    "borrowingNum": 0,
    "viewNum": 0,
    "certFactNum": 0,
    "registerNum": 0,
    "CPSFactNum": 0
  }, {
    "id": null,
    "channelName": "安稳钱包6",
    "borrowingFactNum": 0,
    "certNum": 0,
    "channelUrl": "http://suo.im/4TE76l",
    "CPSNum": 0,
    "borrowingNum": 0,
    "viewNum": 0,
    "certFactNum": 0,
    "registerNum": 0,
    "CPSFactNum": 0
  }, {
    "id": null,
    "channelName": "安稳钱包7",
    "borrowingFactNum": 0,
    "certNum": 0,
    "channelUrl": "http://suo.im/50HqgN",
    "CPSNum": 0,
    "borrowingNum": 0,
    "viewNum": 6,
    "certFactNum": 0,
    "registerNum": 4,
    "CPSFactNum": 0
  }, {
    "id": null,
    "channelName": "安稳钱包8",
    "borrowingFactNum": 0,
    "certNum": 0,
    "channelUrl": "http://suo.im/4TfqyW",
    "CPSNum": 0,
    "borrowingNum": 0,
    "viewNum": 0,
    "certFactNum": 0,
    "registerNum": 0,
    "CPSFactNum": 0
  }, {
    "id": null,
    "channelName": "安稳钱包9",
    "borrowingFactNum": 0,
    "certNum": 0,
    "channelUrl": "http://suo.im/4xnaLv",
    "CPSNum": 0,
    "borrowingNum": 0,
    "viewNum": 0,
    "certFactNum": 0,
    "registerNum": 0,
    "CPSFactNum": 0
  }, {
    "id": null,
    "channelName": "百分百",
    "borrowingFactNum": 0,
    "certNum": 0,
    "channelUrl": "http://suo.im/4X4yxz",
    "CPSNum": 0,
    "borrowingNum": 0,
    "viewNum": 0,
    "certFactNum": 0,
    "registerNum": 0,
    "CPSFactNum": 0
  }, {
    "id": null,
    "channelName": "百分百2",
    "borrowingFactNum": 0,
    "certNum": 0,
    "channelUrl": "http://suo.im/4X6wUZ",
    "CPSNum": 0,
    "borrowingNum": 0,
    "viewNum": 0,
    "certFactNum": 0,
    "registerNum": 0,
    "CPSFactNum": 0
  }, {
    "id": null,
    "channelName": "百分百3",
    "borrowingFactNum": 0,
    "certNum": 0,
    "channelUrl": "http://suo.im/4PL0EY",
    "CPSNum": 0,
    "borrowingNum": 0,
    "viewNum": 0,
    "certFactNum": 0,
    "registerNum": 0,
    "CPSFactNum": 0
  }, {
    "id": null,
    "channelName": "百分百4",
    "borrowingFactNum": 0,
    "certNum": 0,
    "channelUrl": "http://suo.im/5qFMjb",
    "CPSNum": 0,
    "borrowingNum": 0,
    "viewNum": 0,
    "certFactNum": 0,
    "registerNum": 0,
    "CPSFactNum": 0
  }, {
    "id": null,
    "channelName": "百分百5",
    "borrowingFactNum": 0,
    "certNum": 0,
    "channelUrl": "http://suo.im/5qkoac",
    "CPSNum": 0,
    "borrowingNum": 0,
    "viewNum": 0,
    "certFactNum": 0,
    "registerNum": 0,
    "CPSFactNum": 0
  }, {
    "id": null,
    "channelName": "霸王贷",
    "borrowingFactNum": 0,
    "certNum": 0,
    "channelUrl": "http://suo.im/2bbtCc",
    "CPSNum": 0,
    "borrowingNum": 0,
    "viewNum": 0,
    "certFactNum": 0,
    "registerNum": 0,
    "CPSFactNum": 0
  }, {
    "id": null,
    "channelName": "百分百HDD1",
    "borrowingFactNum": 0,
    "certNum": 0,
    "channelUrl": "http://suo.im/4ERnuQ",
    "CPSNum": 0,
    "borrowingNum": 0,
    "viewNum": 0,
    "certFactNum": 0,
    "registerNum": 0,
    "CPSFactNum": 0
  }, {
    "id": null,
    "channelName": "百分百HDD2",
    "borrowingFactNum": 0,
    "certNum": 0,
    "channelUrl": "http://suo.im/5nZ4nJ",
    "CPSNum": 0,
    "borrowingNum": 0,
    "viewNum": 0,
    "certFactNum": 0,
    "registerNum": 0,
    "CPSFactNum": 0
  }, {
    "id": null,
    "channelName": "百分百S",
    "borrowingFactNum": 0,
    "certNum": 0,
    "channelUrl": "http://suo.im/4Y1l5a",
    "CPSNum": 0,
    "borrowingNum": 0,
    "viewNum": 0,
    "certFactNum": 0,
    "registerNum": 0,
    "CPSFactNum": 0
  }],
  "total": 238,
  "totalPages": 10,
  "pageNumber": 1,
  "pageSize": 25
}
http://47.95.118.227:8080/lm/api/debug_king/searchChannel?filters%5B0%5D.property=startCreateDate&filters%5B0%5D.operator=ge&filters%5B0%5D.valueAsDateText=2018-10-01&filters%5B1%5D.property=endCreateDate&filters%5B1%5D.operator=le&filters%5B1%5D.valueAsDateText=2018-10-22&pageNumber=1&pageSize=25&sortProperty=channelName&sortDirection=desc
http://47.95.118.227:8080/lm/api/debug_king/searchChannel?filters%5B0%5D.property=startCreateDate&filters%5B0%5D.operator=ge&filters%5B0%5D.valueAsDateText=2018-10-22&filters%5B1%5D.property=endCreateDate&filters%5B1%5D.operator=le&filters%5B1%5D.valueAsDateText=2018-10-22&pageNumber=2&pageSize=25&sortProperty=channelName&sortDirection=desc